module bitbucket.org/petpusin/golang-basic

go 1.17

require (
	github.com/liudng/dogo v0.0.0-20161102105440-7887b849de84 // indirect
	github.com/zhgo/config v0.0.0-20150924145423-9caf41330bd9 // indirect
	github.com/zhgo/console v0.0.0-20150817103316-22d59bcbd28e // indirect
)
